Find Geolocations for U.S. cities
…
To use Google API to retrieve this information, you need to get a Google API key. The documentation for how to get an API key can be found [here]https://developers.google.com/maps/documentation/javascript/get-api-key.

Once you have your google API key, you first need to register your key and then use *mutate_geocode() function to retrieve the geolocation information.

register_google(key = your_key_here)

It would make sense to enter both the city and state name as the search term, rather than only the city name. So, lets generate a new column for this. I will use tidyverse packages (specifically dplyr) for this. Please note that our df is a data.table, not a tibble. So we will need to convert our data frame to a tibble first.

library(dplyr)

df <- as_tibble(df) %>%
  mutate(search = paste(city,state))
df

## # A tibble: 1,960 x 3
##    city           state   search                
##    <chr>          <chr>   <chr>                 
##  1 Alexander City Alabama Alexander City Alabama
##  2 Andalusia      Alabama Andalusia Alabama     
##  3 Anniston       Alabama Anniston Alabama      
##  4 Athens         Alabama Athens Alabama        
##  5 Atmore         Alabama Atmore Alabama        
##  6 Auburn         Alabama Auburn Alabama        
##  7 Bessemer       Alabama Bessemer Alabama      
##  8 Birmingham     Alabama Birmingham Alabama    
##  9 Chickasaw      Alabama Chickasaw Alabama     
## 10 Clanton        Alabama Clanton Alabama       
## # ... with 1,950 more rows
…
